{
  "firestore": {
    "rules": "firestore.rules",
    "indexes": "firestore.indexes.json"
  },
  "emulators": {
    "auth": {
      "port": 9099
    },
    "firestore": {
      "port": 8080
    },
    "ui": {
      "enabled": false
    }
  },
  "functions": {
    "source": "functions"
  },
  "storage": {
    "rules": "storage.rules"
  }
}
